[
  {
    "outputFileName": "wwwroot/css/site.min.css",
    "inputFiles": [
      //"wwwroot/css/BsMultiSelect.css",
      //"wwwroot/js/select2.js",
      //"wwwroot/js/select2-bootstrap4.js",
      "wwwroot/css/dashboard.css",
      "wwwroot/css/site.css"
    ]
  },
  {
    "outputFileName": "wwwroot/js/site.min.js",
    "inputFiles": [
      "wwwroot/js/popper.js",
      //"wwwroot/js/BsMultiSelect.js",
      //"wwwroot/js/select2.js",
      "wwwroot/js/site.js"



    ],
    "minify": {
      "enabled": true,
      "renameLocals": true
    },
    "sourceMap": false
  }
]
